Tarea: indice de nutrientes en rios (NRSA 2018-19 -> 2023-24)
…
# A tibble: 3 × 2
  group     n
  <chr> <int>
1 alto     55
2 bajo     52
3 medio    97

grouped_fish

# A tibble: 820 × 5
# Groups:   site [813]
   site           riqueza abundancia_total pred_tp group
   <chr>            <int>            <dbl>   <dbl> <fct>
 1 NRS23_AL_10003      14              111    1.90 medio
 2 NRS23_AL_10012      28              558    1.74 medio
 3 NRS23_AL_10021      17              186    1.66 medio
 4 NRS23_AL_10024      24              708    1.80 medio
 5 NRS23_AL_10025      14              278    2.15 alto 
 6 NRS23_AL_10031      16              119    1.97 alto 
 7 NRS23_AL_10051       8               97    1.77 medio
 8 NRS23_AL_10067      18              126    1.80 medio
 9 NRS23_AL_10072      21              257    1.93 alto 
10 NRS23_AL_10091      18              373    2.01 alto 
# ℹ 810 more rows
…
